Decision trees
…
Practical example

This practical example uses passenger data from the Titanic’s maiden voyage. It is usually a good idea to perform exploratory data analysis before estimating any model. This will give a good sense of what the trends in the data are and what is expected from the model.

library(rpart)
library(readxl)
library(tidyverse)

titanic <- read_xlsx("data/Titanic.xlsx")

titanic

# A tibble: 1,309 × 14
   pclass survived name     sex      age sibsp parch ticket  fare cabin embarked
    <dbl>    <dbl> <chr>    <chr>  <dbl> <dbl> <dbl> <chr>  <dbl> <chr> <chr>   
 1      1        1 Allen, … fema… 29         0     0 24160  211.  B5    S       
 2      1        1 Allison… male   0.917     1     2 113781 152.  C22 … S       
 3      1        0 Allison… fema…  2         1     2 113781 152.  C22 … S       
 4      1        0 Allison… male  30         1     2 113781 152.  C22 … S       
 5      1        0 Allison… fema… 25         1     2 113781 152.  C22 … S       
 6      1        1 Anderso… male  48         0     0 19952   26.6 E12   S       
 7      1        1 Andrews… fema… 63         1     0 13502   78.0 D7    S       
 8      1        0 Andrews… male  39         0     0 112050   0   A36   S       
 9      1        1 Appleto… fema… 53         2     0 11769   51.5 C101  S       
10      1        0 Artagav… male  71         0     0 PC 17…  49.5 <NA>  C       
# ℹ 1,299 more rows
# ℹ 3 more variables: boat <chr>, body <dbl>, home.dest <chr>
This section assumes that the EDA has already taken place and that all the variables in the dataset have been identified as important (excluding name and home.dest). The survived variable serves as the dependent variable.

It is good practice to get the data into a format where the estimation can be done in a similar way as demonstrated in the previous section. There are no weights in the data, but we can create our own weights. Grouping by all the variables in the dataset, the weight is just the number of rows with those exact values in all fields of the data.

regression_data <- titanic %>% 
  select(-c(name, home.dest, ticket, cabin)) %>% 
  group_by_all() %>% 
  summarise(
    weight = n()
  ) %>% 
  arrange(-weight)

regression_data

# A tibble: 1,150 × 11
# Groups:   pclass, survived, sex, age, sibsp, parch, fare, embarked, boat
#   [1,135]
   pclass survived sex      age sibsp parch  fare embarked boat   body weight
    <dbl>    <dbl> <chr>  <dbl> <dbl> <dbl> <dbl> <chr>    <chr> <dbl>  <int>
 1      3        0 male      NA     0     0  8.05 S        <NA>     NA     18
 2      3        0 male      NA     0     0  7.90 S        <NA>     NA     16
 3      3        0 male      NA     0     0  7.75 Q        <NA>     NA     15
 4      3        0 male      NA     0     0  7.23 C        <NA>     NA      9
 5      3        0 male      NA     0     0  7.22 C        <NA>     NA      7
 6      2        0 male      NA     0     0  0    S        <NA>     NA      6
 7      3        0 female    NA     0     0  7.75 Q        <NA>     NA      5
 8      3        0 female    NA     8     2 69.6  S        <NA>     NA      4
 9      3        0 male      17     0     0  8.66 S        <NA>     NA      4
10      3        0 male      NA     0     0  7.55 S        <NA>     NA      4
# ℹ 1,140 more rows
…
